\relax 
\@writefile{lot}{\contentsline {table}{\numberline {1}{\ignorespaces Signal region: . Fit results for the electron (top part) and muon (bottom part) channels, for an integrated luminosity of $1035$$fb^{-1}$. The results are obtained from the control regions using the discovery fit (see text for details). The fit results of the loose-not-tight regions are not shown. Nominal MC expectations (normalised to MC cross-sections) are given for comparison. The Monte Carlo QCD estimates are provided for illustrational purposes only, and are not used in the fit. The errors shown are the statistical plus systematic uncertainties, except for the error on the background estimate in the signal region, which is the systematic uncertainty only. Uncertainties on the fitted yields are symmetric by construction, where the negative error is truncated when reaching to zero event yield. }}{1}}
\newlabel{table.results.systematics.in.logL.fit.-y}{{1}{1}}
